{
    "places":{
        "santan":{"lng":-111.677843,"lat":33.306442},
        "peralta":{"lng":-111.678872,"lat":33.306442},
        "catalina":{"lng":-111.676527,"lat":33.306439},
        "sdfc":{"lat":33.307782,"lng":-111.675223},
        "tech":{"lat":33.305408,"lng":-111.680153},
        "center":{"lat":33.307128,"lng":-111.678293}
    },
    "points of interest":{
        "tour":[
            {"lat":33.307127, "lng":-111.679164},
            {"lat":33.307120, "lng":-111.678641},
            {"lat":33.307159, "lng":-111.678582},
            {"lat":33.307109, "lng":-111.678140},
            {"lat":33.307107, "lng":-111.678021},
            {"lat":33.307409, "lng":-111.677687},
            {"lat":33.307619, "lng":-111.677681},
            {"lat":33.307634, "lng":-111.676336},
            {"lat":33.307746, "lng":-111.676177},
            {"lat":33.307776, "lng":-111.675278},
            {"lat":33.307608, "lng":-111.675325},
            {"lat":33.307593, "lng":-111.676467},
            {"lat":33.307075, "lng":-111.676474},
            {"lat":33.307102, "lng":-111.677469},
            {"lat":33.306839, "lng":-111.677481},
            {"lat":33.306689, "lng":-111.677690},
            {"lat":33.306551, "lng":-111.677686},
            {"lat":33.306534, "lng":-111.677873}
        ]
    }
}