
{
"places": [
	{"name": "TECH",
	"lat": "33.305518",
	"lng": "-111.680304" },

	{"name": "CNTR",
	"lat": "33.307110",
	"lng": "-111.678115" },

	{"name": "ADMIN",
	"lat": "33.307110",
	"lng": "-111.679161" },

	{"name": "AGBC",
	"lat": "33.305303",
	"lng": "-111.678453" },

	{"name": "ALTCH",
	"lat": "33.309050",
	"lng": "-111.680298" }

	{"name": "AAPAV",
	"lat": "33.306457",
	"lng": "-111.676017" },


	{"name": "ARAVA",
	"lat": "33.306469",
	"lng": "-111.677981" },

	{"name": "HANGR",
	"lat": "33.311656",
	"lng": "-111.671302" }

	{"name": "BELL",
	"lat": "33.305163",
	"lng": "-111.677498" },

	{"name": "CNTRY",
	"lat": "33.308010",
	"lng": "-111.677664" },

	{"name": "CITRS",
	"lat": "33.307852",
	"lng": "-111.676430" },

	{"name": "DEAN",
	"lat": "33.304897",
	"lng": "-111.677246" },

	{"name": "ENGR",
	"lat": "33.305277",
	"lng": "-111.678952" },

	{"name": "PALOB",
	"lat": "33.305829",
	"lng": "-111.675347" },

	{"name": "PRLTA",
	"lat": "33.305931",
	"lng": "-111.678882" },

	{"name": "PICHO",
	"lat": "33.306488",
	"lng": "-111.679161" },

	{"name": "SANCA",
	"lat": "33.305924",
	"lng": "-111.676522" },

	{"name": "SANTN",
	"lat": "33.305911",
	"lng": "-111.677873" },

	{"name": "SIM",
	"lat": "33.309747",
	"lng": "-111.672176" },

	{"name": "SDFC",
	"lat": "33.307769",
	"lng": "-111.675513" },

	{"name": "SUTON",
	"lat": "33.306159",
	"lng": "-111.677187" },

	{"name": "TAYLO",
	"lat": "33.306248",
	"lng": "-111.675175" },

	{"name": "TLABS",
	"lat": "33.304111",
	"lng": "-111.676189" },

	{"name": "WANER",
	"lat": "33.306064",
	"lng": "-111.677181" },

	{"name": "INRWD",
	"lat": "33.306286",
	"lng": "-111.681151" },

	{"name": "ECET",
	"lat": "33.303198",
	"lng": "-111.678458" },

	{"name": "FMPD",
	"lat": "33.305759",
	"lng": "-111.681618" },

	{"name": "GRNHS",
	"lat": "33.304269",
	"lng": "-111.673829" },

	{"name": "EAGLE",
	"lat": "33.310280",
	"lng": "-111.678260" },

	{"name": "FALCO",
	"lat": "33.310229",
	"lng": "-111.676693" },

	{"name": "MSUTA",
	"lat": "33.310071",
	"lng": "-111.676012" },

	{"name": "TAlng",
	"lat": "33.310001",
	"lng": "-111.678544" },

	{"name": "PHANT",
	"lat": "33.310014",
	"lng": "-111.677101" },






], 

"points":[
		{"lat":"33.305613",
		"lng": "-111.679966"},
		
		{"lat":"33.305464",
		"lng": "-111.679574"},
		
		{"lat":"33.304687",
		"lng": "-111.679636"},
		
		{"lat":"33.304665",
		"lng": " -111.678810"},
		
		{"lat":"33.305454",
		"lng": "-111.679582"},
		
		{"lat":"33.305356",
		"lng": "-111.679477"},
		
		{"lat":"33.305315",
		"lng": " -111.678836"},
		
		{"lat":"33.305613",
		"lng": "  -111.678423"},
		
		{"lat":"33.304640",
		"lng": "-111.677707"},
		
		{"lat":"33.305283",
		"lng": "-111.677713"},
		
		{"lat":"33.305004",
		"lng": " -111.677713"},
		
		{"lat":"33.305607",
		"lng": "-111.679971"},
		
		{"lat":"33.305936",
		"lng": "-111.679614"},
		
		{"lat":"33.305746",
		"lng": "-111.679571"},
		
		{"lat":"33.305952",
		"lng": "-111.679563"},
		
		{"lat":"33.305762",
		"lng": "-111.678863"},
		
		{"lat":"33.305870",
		"lng": " -111.678844"},
		
		{"lat":"33.305613",
		"lng": " -111.679966"},
		
		{"lat":"33.306269",
		"lng": " -111.678858"},
		
		{"lat":"33.306478",
		"lng": " -111.679585"},
		
		{"lat":"33.306491",
		"lng": " -111.679928"},
		
		{"lat":"33.306073",
		"lng": "-111.679054"},
		
		{"lat":"33.306367",
		"lng": " -111.679024"},
		
		{"lat":"33.306551",
		"lng": "-111.678917"},
		
		{"lat":"33.306501",
		"lng": " -111.678646"},
		
		
		
		
		{"lat":"33.306203",
		"lng": "-111.678624"},
		
		{"lat":"33.306095",
		"lng": "-111.678619"},
		
		{"lat":"33.306111",
		"lng": "-111.678356"},
		 
		 {"lat":"33.306257",
		"lng": " -111.678067"},
		
		{"lat":"33.305797",
		"lng": "-111.677844"},
		
		{"lat":"33.305613",
		"lng": "-111.679966"},
		
		{"lat":"33.306089",
		"lng": "-111.677865"},
		
		{"lat":"33.306526",
		"lng": "-111.677844"},
		
		{"lat":"33.306136",
		"lng": "-111.677645"},
		
		{"lat":"33.306539",
		"lng": " -111.677670"},
		
		{"lat":"33.306111",
		"lng": "-111.677184"},
		
		{"lat":"33.306123",
		"lng": "-111.676731"},
		
		{"lat":"33.306539",
		"lng": " -111.676747"},
		
		{"lat":"33.305857",
		"lng": "-111.679966"},
		
		{"lat":"33.305613",
		"lng": "-111.676744"},
		
		{"lat":"33.305882",
		"lng": "-111.676524"},
		
		{"lat":"33.305610",
		"lng": "-111.677364"},
		
		{"lat":"33.305597",
		"lng": "-111.676763"},
		
		{"lat":"33.305591",
		"lng": "-111.676489"},
		
		{"lat":"33.306047",
		"lng": "-111.676535"},
		
		{"lat":"(33.306529",
		"lng": "-111.676511"},
		
		{"lat":"33.306184",
		"lng": "-111.676331"},
		
		{"lat":"33.306050",
		"lng": "-111.676342"},
		
		{"lat":"33.306234",
		"lng": " -111.676291"},
		
		{"lat":"33.306199",
		"lng": "-111.675969"},
		
		{"lat":"33.306504",
		"lng": "-111.675693"},
		
		{"lat":"33.306199",
		"lng": "-111.675690"},
		
		{"lat":"33.305968",
		"lng": "-111.675671"},
		
		{"lat":"33.305632,",
		"lng": "-111.675677"},
		
		{"lat":"33.305007",
		"lng": "-111.675693"},
		
		{"lat":"33.305619",
		"lng": "-111.675368"},
		
		{"lat":"33.306123",
		"lng": "-111.677189"},
		
		{"lat":"(33.30598",
		"lng": "-111.674682"},
		
		{"lat":"33.306485",
		"lng": "-111.674679"},
		
		{"lat":"33.306925",
		"lng": "-111.674668"},
		
		{"lat":"33.307477",
		"lng": "-111.674663"},
		
		{"lat":"33.307055",
		"lng": "-111.675140"},
		
		{"lat":"33.307059",
		"lng": "-111.675674"},
		
		{"lat":"33.307062",
		"lng": "-111.676473"},
		
		{"lat":"33.307607",
		"lng": "-111.676151"},
		
		{"lat":"33.307620",
		"lng": "-111.675669"},
		
		{"lat":"33.307578",
		"lng": "-111.676460"},
		
		{"lat":"33.307014",
		"lng": "-111.676870"},
		
		{"lat":"33.306906",
		"lng": "-111.676902"},
		
		{"lat":"33.306903",
		"lng": "-111.677104"},
		
		{"lat":"33.306830",
		"lng": "-111.677474"},
		
		{"lat":"33.307610",
		"lng": "-111.676637"},
		
		
		
		
		
				
		{"lat":"33.306830",
		"lng": "-111.677648"},
				
		{"lat":"33.306700",
		"lng": "-111.677662"},
				
		{"lat":"33.307103",
		"lng": "-111.677702"},
				
		{"lat":"33.306897",
		"lng": "-111.677688"},
				
		{"lat":"33.307385",
		"lng": "-111.677686"},
				
		{"lat":"33.307598",
		"lng": "-111.677723"},
				
		{"lat":"33.307559",
		"lng": "-111.677999"},
				
		{"lat":"33.307610",
		"lng": "-111.676637"},
				
		{"lat":"33.307610",
		"lng": " -111.676637"},
				
		{"lat":"33.307166",
		"lng": "-111.677994"},
				
		{"lat":"33.306913",
		"lng": "-111.677983"},
				
		{"lat":"33.307116",
		"lng": "-111.678638"},
				
		{"lat":"33.306878",
		"lng": "-111.678641"},
				
		{"lat":"33.306859",
		"lng": "-111.678914"},
				
		{"lat":"33.306881",
		"lng": "-111.679129"},
				
		{"lat":"33.307112",
		"lng": "-111.679145"},
				
		{"lat":"33.307350",
		"lng": "-111.679139"},
				
		{"lat":"33.307582",
		"lng": "-111.678632"},
				
		{"lat":"33.307433",
		"lng": "-111.678649"},
				
		{"lat":"33.307626",
		"lng": " -111.678911"},
		
		{"lat":"33.307626",
		"lng": " -111.679134"},
				
		{"lat":"33.307636",
		"lng": " -111.676637"},
				
		{"lat":"33.307637",
		"lng": " -111.679607"},
				
		{"lat":"33.307132",
		"lng": "-111.679636"},
				
		{"lat":"33.307135",
		"lng": "-111.679952"},
				
		{"lat":"33.308124",
		"lng": "-111.679587"},
				
		{"lat":"33.308133",
		"lng": "-111.680135"},
				
		{"lat":"33.308149",
		"lng": "-111.679408"},
				
		{"lat":"33.308317",
		"lng": "-111.679233"},
				
		{"lat":"33.308121",
		"lng": "-111.677715"},
				
		{"lat":"33.308064",
		"lng": "-111.677299"},
				
		{"lat":"33.308038",
		"lng": "-111.676656"},
				
		{"lat":"33.307857",
		"lng": "-111.676581"},
				
		{"lat":"33.307737",
		"lng": "-111.675653"},
				
		{"lat":"33.308213",
		"lng": "-111.675631"},
				
		{"lat":"33.308282",
		"lng": "-111.675250"},
				
		{"lat":"33.308285",
		"lng": "-111.674384"},
				
		{"lat":"33.307854",
		"lng": "-111.674352"},
				
		{"lat":"33.307667",
		"lng": "-111.674373"},
				
		{"lat":"33.308282",
		"lng": "-111.673520"},
		
		{"lat":"33.307613",
		"lng": "-111.673233"},
				
		{"lat":"33.308685",
		"lng": "-111.673528"},
				
		{"lat":"33.309408",
		"lng": "-111.673509"},
				
		{"lat":"33.309423",
		"lng": "-111.672815"},
				
		{"lat":"33.309417",
		"lng": "-111.672412"},
				
		{"lat":"33.309569",
		"lng": "-111.672329"},
				
		{"lat":"33.309595",
		"lng": "-111.674655"},
				
		{"lat":"33.309601",
		"lng": "-111.675695"},
				
		{"lat":"33.309620",
		"lng": "-111.676157"},
				
		{"lat":"33.309620",
		"lng": "-111.676782"},
				
		{"lat":"33.309636",
		"lng": "-111.677493"},
				
		{"lat":"33.310054",
		"lng": "-111.676154"},
				
		{"lat":"33.310105",
		"lng": "-111.676701"},
				
		{"lat":"33.310096",
		"lng": "-111.677114"},
				
		{"lat":"33.310089",
		"lng": "-111.677675"},
				
		{"lat":"33.310118",
		"lng": "-111.678252"},
				
		{"lat":"33.310096",
		"lng": "-111.678533"},
				
		{"lat":"33.308593",
		"lng": "-111.676615"},
				
		{"lat":"33.308640",
		"lng": "-111.677683"},
				
		{"lat":"33.309455",
		"lng": "-111.677683"},
		
		{"lat":"33.309462",
		"lng": "-111.676629"},
				
		{"lat":"33.303755",
		"lng": "-111.679413"}

]

}