# Blender v2.79 (sub 0) OBJ File: 'pin.blend'
# www.blender.org
mtllib pin.mtl
o Circle_Circle.001
v 0.067444 0.156345 0.010693
v 0.067119 0.162956 0.010693
v 0.066148 0.169503 0.010693
v 0.064540 0.175923 0.010693
v 0.062310 0.182155 0.010693
v 0.059480 0.188138 0.010693
v 0.056078 0.193815 0.010693
v 0.052135 0.199131 0.010693
v 0.047690 0.204035 0.010693
v 0.042786 0.208480 0.010693
v 0.037470 0.212423 0.010693
v 0.031793 0.215825 0.010693
v 0.025810 0.218655 0.010693
v 0.019578 0.220885 0.010693
v 0.013158 0.222493 0.010693
v 0.006611 0.223464 0.010693
v -0.000000 0.223789 0.010693
v -0.006611 0.223464 0.010693
v -0.013158 0.222493 0.010693
v -0.019578 0.220885 0.010693
v -0.025810 0.218655 0.010693
v -0.031793 0.215825 0.010693
v -0.037470 0.212423 0.010693
v -0.042786 0.208480 0.010693
v -0.047690 0.204035 0.010693
v -0.052135 0.199131 0.010693
v -0.056078 0.193815 0.010693
v -0.059480 0.188138 0.010693
v -0.062310 0.182155 0.010693
v -0.064540 0.175923 0.010693
v -0.066148 0.169503 0.010693
v -0.067119 0.162956 0.010693
v -0.067444 0.156345 0.010693
v -0.067119 0.149734 0.010693
v -0.066148 0.143187 0.010693
v -0.064540 0.136767 0.010693
v -0.062310 0.130535 0.010693
v -0.059480 0.124552 0.010693
v -0.056078 0.118875 0.010693
v -0.052135 0.112266 0.010693
v -0.047690 0.105098 0.010693
v -0.042786 0.098066 0.010693
v -0.037470 0.090566 0.010693
v -0.031793 0.081019 0.010693
v -0.025810 0.070751 0.010693
v -0.019578 0.059466 0.010693
v -0.013158 0.046539 0.010693
v -0.006611 0.029398 0.010693
v -0.000000 0.005142 0.010693
v 0.006611 0.029398 0.010693
v 0.013158 0.046539 0.010693
v 0.019578 0.059466 0.010693
v 0.025810 0.070751 0.010693
v 0.031793 0.081019 0.010693
v 0.037470 0.090566 0.010693
v 0.042786 0.098066 0.010693
v 0.047690 0.105098 0.010693
v 0.052135 0.112265 0.010693
v 0.056078 0.118875 0.010693
v 0.059480 0.124552 0.010693
v 0.062310 0.130535 0.010693
v 0.064540 0.136767 0.010693
v 0.066148 0.143187 0.010693
v 0.067119 0.149734 0.010693
v 0.067444 0.156345 -0.010499
v 0.067119 0.162956 -0.010499
v 0.066148 0.169503 -0.010499
v 0.064540 0.175923 -0.010499
v 0.062310 0.182155 -0.010499
v 0.059480 0.188138 -0.010499
v 0.056078 0.193815 -0.010499
v 0.052135 0.199131 -0.010499
v 0.047690 0.204035 -0.010499
v 0.042786 0.208480 -0.010499
v 0.037470 0.212423 -0.010499
v 0.031793 0.215825 -0.010499
v 0.025810 0.218655 -0.010499
v 0.019578 0.220885 -0.010499
v 0.013158 0.222493 -0.010499
v 0.006611 0.223464 -0.010499
v -0.000000 0.223789 -0.010499
v -0.006611 0.223464 -0.010499
v -0.013158 0.222493 -0.010499
v -0.019578 0.220885 -0.010499
v -0.025810 0.218655 -0.010499
v -0.031793 0.215825 -0.010499
v -0.037470 0.212423 -0.010499
v -0.042786 0.208480 -0.010499
v -0.047690 0.204035 -0.010499
v -0.052135 0.199131 -0.010499
v -0.056078 0.193815 -0.010499
v -0.059480 0.188138 -0.010499
v -0.062310 0.182155 -0.010499
v -0.064540 0.175923 -0.010499
v -0.066148 0.169503 -0.010499
v -0.067119 0.162956 -0.010499
v -0.067444 0.156345 -0.010499
v -0.067119 0.149734 -0.010499
v -0.066148 0.143187 -0.010499
v -0.064540 0.136767 -0.010499
v -0.062310 0.130535 -0.010499
v -0.059480 0.124552 -0.010499
v -0.056078 0.118875 -0.010499
v -0.052135 0.112266 -0.010499
v -0.047690 0.105098 -0.010499
v -0.042786 0.098066 -0.010499
v -0.037470 0.090566 -0.010499
v -0.031793 0.081019 -0.010499
v -0.025810 0.070751 -0.010499
v -0.019578 0.059466 -0.010499
v -0.013158 0.046539 -0.010499
v -0.006611 0.029398 -0.010499
v -0.000000 0.005142 -0.010499
v 0.006611 0.029398 -0.010499
v 0.013158 0.046539 -0.010499
v 0.019578 0.059466 -0.010499
v 0.025810 0.070751 -0.010499
v 0.031793 0.081019 -0.010499
v 0.037470 0.090566 -0.010499
v 0.042786 0.098066 -0.010499
v 0.047690 0.105098 -0.010499
v 0.052135 0.112265 -0.010499
v 0.056078 0.118875 -0.010499
v 0.059480 0.124552 -0.010499
v 0.062310 0.130535 -0.010499
v 0.064540 0.136767 -0.010499
v 0.066148 0.143187 -0.010499
v 0.067119 0.149734 -0.010499
vt 0.399125 0.595626
vt 0.386985 0.614510
vt 0.373199 0.632010
vt 0.357899 0.647960
vt 0.341232 0.662204
vt 0.323361 0.674606
vt 0.304455 0.685046
vt 0.284699 0.693424
vt 0.264281 0.699659
vt 0.243398 0.703691
vt 0.222252 0.705481
vt 0.201046 0.705013
vt 0.179985 0.702289
vt 0.159271 0.697338
vt 0.139103 0.690206
vt 0.119677 0.680962
vt 0.101179 0.669695
vt 0.083787 0.656514
vt 0.067668 0.641545
vt 0.052979 0.624933
vt 0.039859 0.606837
vt 0.028437 0.587433
vt 0.018821 0.566907
vt 0.011105 0.545455
vt 0.005363 0.523287
vt 0.001649 0.500613
vt 0.000000 0.477654
vt 0.000432 0.454630
vt 0.002940 0.431762
vt 0.007500 0.409272
vt 0.014069 0.387375
vt 0.022583 0.366283
vt 0.032960 0.346198
vt 0.045100 0.327314
vt 0.058887 0.309814
vt 0.074187 0.293864
vt 0.090853 0.279620
vt 0.108725 0.267218
vt 0.129478 0.252749
vt 0.152470 0.237321
vt 0.176584 0.223029
vt 0.202550 0.207917
vt 0.232475 0.186990
vt 0.264308 0.164294
vt 0.298308 0.138816
vt 0.335194 0.108515
vt 0.378465 0.065288
vt 0.432085 0.000000
vt 0.416390 0.085799
vt 0.410678 0.149340
vt 0.410624 0.199560
vt 0.412376 0.244373
vt 0.414867 0.285634
vt 0.417510 0.324175
vt 0.422043 0.355781
vt 0.426063 0.385289
vt 0.428571 0.414508
vt 0.430436 0.441210
vt 0.432085 0.464170
vt 0.431654 0.487194
vt 0.429146 0.510061
vt 0.424585 0.532552
vt 0.418016 0.554448
vt 0.409502 0.575541
vt 0.446154 0.387375
vt 0.454668 0.366283
vt 0.465045 0.346197
vt 0.477186 0.327314
vt 0.490972 0.309813
vt 0.506272 0.293864
vt 0.522938 0.279620
vt 0.540810 0.267218
vt 0.561564 0.252749
vt 0.584555 0.237321
vt 0.608670 0.223029
vt 0.634635 0.207917
vt 0.664560 0.186990
vt 0.696394 0.164294
vt 0.730393 0.138816
vt 0.767280 0.108516
vt 0.810551 0.065288
vt 0.864170 0.000000
vt 0.848475 0.085799
vt 0.842764 0.149340
vt 0.842709 0.199560
vt 0.844461 0.244374
vt 0.846952 0.285634
vt 0.849595 0.324175
vt 0.854128 0.355781
vt 0.858148 0.385289
vt 0.860656 0.414508
vt 0.862521 0.441211
vt 0.864170 0.464170
vt 0.863739 0.487194
vt 0.861231 0.510062
vt 0.856670 0.532552
vt 0.850101 0.554449
vt 0.841587 0.575541
vt 0.831210 0.595626
vt 0.819070 0.614509
vt 0.805284 0.632010
vt 0.789984 0.647959
vt 0.773318 0.662204
vt 0.755446 0.674606
vt 0.736541 0.685046
vt 0.716784 0.693424
vt 0.696366 0.699659
vt 0.675483 0.703691
vt 0.654337 0.705481
vt 0.633132 0.705013
vt 0.612070 0.702289
vt 0.591356 0.697338
vt 0.571189 0.690206
vt 0.551762 0.680962
vt 0.533264 0.669695
vt 0.515872 0.656514
vt 0.499753 0.641545
vt 0.485064 0.624933
vt 0.471945 0.606838
vt 0.460522 0.587433
vt 0.450907 0.566907
vt 0.443190 0.545456
vt 0.437448 0.523287
vt 0.433734 0.500613
vt 0.432085 0.477654
vt 0.432517 0.454630
vt 0.435025 0.431762
vt 0.439585 0.409272
vt 0.864170 0.324548
vt 0.864170 0.286152
vt 0.932085 0.286152
vt 0.932085 0.324548
vt 0.135830 0.747067
vt 0.135830 0.769105
vt 0.067915 0.769105
vt 0.067915 0.747067
vt 0.864170 0.615973
vt 0.864170 0.596579
vt 0.932085 0.596579
vt 0.932085 0.615973
vt 0.864170 0.355932
vt 0.932085 0.355932
vt 0.135830 0.725791
vt 0.067915 0.725791
vt 0.864170 0.634057
vt 0.932085 0.634057
vt 0.864170 0.385243
vt 0.932085 0.385243
vt 0.135830 0.705481
vt 0.067915 0.705481
vt 0.864170 0.650656
vt 0.932085 0.650656
vt 0.864170 0.414331
vt 0.932085 0.414331
vt 1.000000 0.596579
vt 1.000000 0.615973
vt 0.932085 0.615973
vt 0.932085 0.596579
vt 0.067915 0.983716
vt 0.067915 1.000000
vt 0.000000 1.000000
vt 0.000000 0.983716
vt 0.864170 0.440931
vt 0.932085 0.440931
vt 1.000000 0.576061
vt 0.932085 0.576061
vt 0.067915 0.965914
vt 0.000000 0.965914
vt 0.864170 0.463800
vt 0.932085 0.463800
vt 1.000000 0.554617
vt 0.932085 0.554617
vt 0.067915 0.946766
vt 0.000000 0.946766
vt 0.864170 0.486825
vt 0.932085 0.486825
vt 1.000000 0.532453
vt 0.932085 0.532453
vt 0.067915 0.926457
vt 0.000000 0.926457
vt 0.864170 0.509783
vt 0.932085 0.509783
vt 1.000000 0.509783
vt 0.932085 0.509783
vt 0.067915 0.905181
vt 0.000000 0.905181
vt 0.864170 0.532453
vt 0.932085 0.532453
vt 1.000000 0.486825
vt 0.932085 0.486825
vt 0.067915 0.883143
vt 0.000000 0.883143
vt 0.864170 0.554616
vt 0.932085 0.554616
vt 1.000000 0.463801
vt 0.932085 0.463801
vt 0.067915 0.860557
vt 0.000000 0.860557
vt 0.864170 0.576061
vt 0.932085 0.576061
vt 1.000000 0.440931
vt 0.932085 0.440931
vt 0.067915 0.837638
vt 0.000000 0.837638
vt 1.000000 0.414331
vt 0.932085 0.414331
vt 0.067915 0.814609
vt 0.000000 0.814609
vt 1.000000 0.385244
vt 0.932085 0.385244
vt 0.067915 0.791691
vt 0.000000 0.791691
vt 1.000000 0.355933
vt 0.932085 0.355933
vt 0.067915 0.769105
vt 0.000000 0.769105
vt 1.000000 0.324548
vt 0.932085 0.324548
vt 0.067915 0.747067
vt 0.000000 0.747067
vt 1.000000 0.286153
vt 0.932085 0.286153
vt 0.067915 0.725791
vt 0.000000 0.725791
vt 1.000000 0.245032
vt 0.932085 0.245032
vt 0.067915 0.705481
vt 0.000000 0.705481
vt 1.000000 0.200331
vt 0.932085 0.200331
vt 0.135830 0.946766
vt 0.135830 0.965914
vt 0.067915 0.965914
vt 0.067915 0.946766
vt 1.000000 0.150148
vt 0.932085 0.150148
vt 0.135830 0.926457
vt 0.067915 0.926457
vt 1.000000 0.086410
vt 0.932085 0.086410
vt 0.135830 0.905181
vt 0.067915 0.905181
vt 1.000000 0.000000
vt 0.932085 0.000000
vt 0.135830 0.883143
vt 0.067915 0.883143
vt 0.864170 0.086410
vt 0.864170 0.000000
vt 0.932085 0.086410
vt 0.135830 0.860557
vt 0.067915 0.860557
vt 0.864170 0.150148
vt 0.932085 0.150148
vt 0.135830 0.837638
vt 0.067915 0.837638
vt 0.864170 0.200330
vt 0.932085 0.200330
vt 0.135830 0.814609
vt 0.067915 0.814609
vt 0.864170 0.245032
vt 0.932085 0.245032
vt 0.135830 0.791691
vt 0.067915 0.791691
vn -0.0000 0.0000 1.0000
vn 0.0000 -0.0000 -1.0000
vn 0.8595 -0.5111 0.0000
vn -0.9040 0.4276 0.0000
vn 0.9892 0.1467 0.0000
vn 0.8158 -0.5783 0.0000
vn -0.9415 0.3369 0.0000
vn 0.9700 0.2430 0.0000
vn 0.8202 -0.5720 0.0000
vn -0.9700 0.2430 0.0000
vn 0.9415 0.3369 0.0000
vn 0.8499 -0.5270 0.0000
vn -0.9892 0.1467 0.0000
vn 0.9040 0.4276 0.0000
vn 0.8588 -0.5123 0.0000
vn -0.9988 0.0491 0.0000
vn 0.8577 0.5141 0.0000
vn 0.8577 -0.5141 0.0000
vn -0.9988 -0.0491 0.0000
vn 0.8032 0.5957 0.0000
vn 0.9040 -0.4276 0.0000
vn -0.9892 -0.1467 0.0000
vn 0.7409 0.6716 0.0000
vn 0.9415 -0.3369 0.0000
vn -0.9700 -0.2430 0.0000
vn 0.6716 0.7409 0.0000
vn 0.9700 -0.2430 0.0000
vn -0.9415 -0.3369 0.0000
vn 0.5957 0.8032 0.0000
vn 0.9892 -0.1467 0.0000
vn -0.9040 -0.4276 0.0000
vn 0.5141 0.8577 0.0000
vn 0.9988 -0.0491 0.0000
vn -0.8577 -0.5141 0.0000
vn 0.4276 0.9040 0.0000
vn -0.8588 -0.5123 0.0000
vn 0.3369 0.9415 0.0000
vn -0.8499 -0.5270 0.0000
vn 0.2430 0.9700 0.0000
vn -0.8202 -0.5720 0.0000
vn 0.1467 0.9892 0.0000
vn -0.8158 -0.5783 0.0000
vn 0.0491 0.9988 0.0000
vn -0.8595 -0.5111 0.0000
vn -0.0491 0.9988 0.0000
vn -0.8640 -0.5035 0.0000
vn -0.1467 0.9892 0.0000
vn -0.8754 -0.4834 0.0000
vn -0.2430 0.9700 0.0000
vn -0.8956 -0.4448 -0.0000
vn -0.3369 0.9415 0.0000
vn -0.9342 -0.3568 0.0000
vn -0.4276 0.9040 0.0000
vn -0.9648 -0.2629 -0.0000
vn -0.5141 0.8577 0.0000
vn 0.9648 -0.2629 0.0000
vn -0.5957 0.8032 0.0000
vn 0.9342 -0.3568 0.0000
vn -0.6716 0.7409 0.0000
vn 0.8956 -0.4448 0.0000
vn -0.7410 0.6716 0.0000
vn 0.8754 -0.4834 0.0000
vn -0.8032 0.5957 0.0000
vn 0.8640 -0.5035 0.0000
vn -0.8577 0.5141 0.0000
vn 0.9988 0.0491 0.0000
usemtl None
s off
f 2/1/1 3/2/1 4/3/1 5/4/1 6/5/1 7/6/1 8/7/1 9/8/1 10/9/1 11/10/1 12/11/1 13/12/1 14/13/1 15/14/1 16/15/1 17/16/1 18/17/1 19/18/1 20/19/1 21/20/1 22/21/1 23/22/1 24/23/1 25/24/1 26/25/1 27/26/1 28/27/1 29/28/1 30/29/1 31/30/1 32/31/1 33/32/1 34/33/1 35/34/1 36/35/1 37/36/1 38/37/1 39/38/1 40/39/1 41/40/1 42/41/1 43/42/1 44/43/1 45/44/1 46/45/1 47/46/1 48/47/1 49/48/1 50/49/1 51/50/1 52/51/1 53/52/1 54/53/1 55/54/1 56/55/1 57/56/1 58/57/1 59/58/1 60/59/1 61/60/1 62/61/1 63/62/1 64/63/1 1/64/1
f 66/65/2 65/66/2 128/67/2 127/68/2 126/69/2 125/70/2 124/71/2 123/72/2 122/73/2 121/74/2 120/75/2 119/76/2 118/77/2 117/78/2 116/79/2 115/80/2 114/81/2 113/82/2 112/83/2 111/84/2 110/85/2 109/86/2 108/87/2 107/88/2 106/89/2 105/90/2 104/91/2 103/92/2 102/93/2 101/94/2 100/95/2 99/96/2 98/97/2 97/98/2 96/99/2 95/100/2 94/101/2 93/102/2 92/103/2 91/104/2 90/105/2 89/106/2 88/107/2 87/108/2 86/109/2 85/110/2 84/111/2 83/112/2 82/113/2 81/114/2 80/115/2 79/116/2 78/117/2 77/118/2 76/119/2 75/120/2 74/121/2 73/122/2 72/123/2 71/124/2 70/125/2 69/126/2 68/127/2 67/128/2
f 55/129/3 54/130/3 118/131/3 119/132/3
f 29/133/4 28/134/4 92/135/4 93/136/4
f 3/137/5 2/138/5 66/139/5 67/140/5
f 56/141/6 55/129/6 119/132/6 120/142/6
f 30/143/7 29/133/7 93/136/7 94/144/7
f 4/145/8 3/137/8 67/140/8 68/146/8
f 57/147/9 56/141/9 120/142/9 121/148/9
f 31/149/10 30/143/10 94/144/10 95/150/10
f 5/151/11 4/145/11 68/146/11 69/152/11
f 58/153/12 57/147/12 121/148/12 122/154/12
f 32/155/13 31/156/13 95/157/13 96/158/13
f 6/159/14 5/160/14 69/161/14 70/162/14
f 59/163/15 58/153/15 122/154/15 123/164/15
f 33/165/16 32/155/16 96/158/16 97/166/16
f 7/167/17 6/159/17 70/162/17 71/168/17
f 60/169/18 59/163/18 123/164/18 124/170/18
f 34/171/19 33/165/19 97/166/19 98/172/19
f 8/173/20 7/167/20 71/168/20 72/174/20
f 61/175/21 60/169/21 124/170/21 125/176/21
f 35/177/22 34/171/22 98/172/22 99/178/22
f 9/179/23 8/173/23 72/174/23 73/180/23
f 62/181/24 61/175/24 125/176/24 126/182/24
f 36/183/25 35/177/25 99/178/25 100/184/25
f 10/185/26 9/179/26 73/180/26 74/186/26
f 63/187/27 62/181/27 126/182/27 127/188/27
f 37/189/28 36/183/28 100/184/28 101/190/28
f 11/191/29 10/185/29 74/186/29 75/192/29
f 64/193/30 63/187/30 127/188/30 128/194/30
f 38/195/31 37/189/31 101/190/31 102/196/31
f 12/197/32 11/191/32 75/192/32 76/198/32
f 1/199/33 64/193/33 128/194/33 65/200/33
f 39/201/34 38/195/34 102/196/34 103/202/34
f 13/203/35 12/197/35 76/198/35 77/204/35
f 40/205/36 39/201/36 103/202/36 104/206/36
f 14/207/37 13/203/37 77/204/37 78/208/37
f 41/209/38 40/205/38 104/206/38 105/210/38
f 15/211/39 14/207/39 78/208/39 79/212/39
f 42/213/40 41/209/40 105/210/40 106/214/40
f 16/215/41 15/211/41 79/212/41 80/216/41
f 43/217/42 42/213/42 106/214/42 107/218/42
f 17/219/43 16/215/43 80/216/43 81/220/43
f 44/221/44 43/217/44 107/218/44 108/222/44
f 18/223/45 17/219/45 81/220/45 82/224/45
f 45/225/46 44/221/46 108/222/46 109/226/46
f 19/227/47 18/223/47 82/224/47 83/228/47
f 46/229/48 45/225/48 109/226/48 110/230/48
f 20/231/49 19/232/49 83/233/49 84/234/49
f 47/235/50 46/229/50 110/230/50 111/236/50
f 21/237/51 20/231/51 84/234/51 85/238/51
f 48/239/52 47/235/52 111/236/52 112/240/52
f 22/241/53 21/237/53 85/238/53 86/242/53
f 49/243/54 48/239/54 112/240/54 113/244/54
f 23/245/55 22/241/55 86/242/55 87/246/55
f 50/247/56 49/248/56 113/244/56 114/249/56
f 24/250/57 23/245/57 87/246/57 88/251/57
f 51/252/58 50/247/58 114/249/58 115/253/58
f 25/254/59 24/250/59 88/251/59 89/255/59
f 52/256/60 51/252/60 115/253/60 116/257/60
f 26/258/61 25/254/61 89/255/61 90/259/61
f 53/260/62 52/256/62 116/257/62 117/261/62
f 27/262/63 26/258/63 90/259/63 91/263/63
f 54/130/64 53/260/64 117/261/64 118/131/64
f 28/134/65 27/262/65 91/263/65 92/135/65
f 2/138/66 1/199/66 65/200/66 66/139/66
